[
 {"id":594,"name":"594-ANT-ANTONIO VARAS"},
{"id":595,"name":"595-BEL-BELLAVISTA"},
{"id":596,"name":"596-CAS-CASONA LAS CONDES"},
{"id":597,"name":"597-CCL-CAMPUS VIRTUAL"},
{"id":598,"name":"598-CCR-CAMPUS CREATIVO"},
{"id":599,"name":"599-CLC-CAMPO CLINICO CONCEPCION"},
{"id":600,"name":"600-CLM-CAMPO CLINICO METROPOLITANA"},
{"id":601,"name":"601-CLV-CAMPO CLINICO VI?A DEL MAR"},
{"id":602,"name":"602-CON-CONCEPCION"},
{"id":603,"name":"603-LNS-LOS LEONES"},
{"id":604,"name":"604-QUI-QUINTAY"},
{"id":605,"name":"605-REP-REPUBLICA"},
{"id":606,"name":"606-VIN-VINA DEL MAR"}

]